AMB	ICZ	VCZ	PCZ	TRB	CPF	MCF	AND
CNM-CM6069	8	0.5	2	0.12	0.5	1	0.015	0.015
CNM-CM6936	16	0.5	4	0.25	2	2	0.03	0.03
CNM-CM7927	8	0.5	2	0.12	0.5	0.06	0.015	0.007
CNM-CM8060	0.12	0.25	1	0.12	0.5	2	0.06	0.03
CNM-CM8694	2	0.12	0.25	0.06	32	0.03	0.03	0
CNM-CM8927	16	2	1	0.25	2	0.25	0.015	0.015
CNM-CM5878	1	0.25	0.5	0.06	0.25	1	0.03	0.015
CMM-CM6457	16	16	2	0.25	1	0.25	0.03	0.007
CNM-CM6805	16	0.25	2	0.12	0.25	0.5	0.03	0.03
CNM-CM8980	16	0.5	2	0.5	0.5	0.12	0.007	0.015
CNM-CM8057	0.25	8	8	1	16	0.5	0.06	0.12
CNM-CM8714	0.25	8	4	1	4	0.25	0.007	0.03
CNM-CM8812	0.25	0.25	0.5	0.12	1	0.25	0.03	0.03
CNM-CM8686	0.5	0.25	0.25	0.12	2	0.25	0.015	0.015
CNM-CM8689	1	1	8	0.25	16	0.5	0.125	0.03
